%YAML 1.1
%TAG !u! tag:unity3d.com,2011:
--- !u!114 &11400000
MonoBehaviour:
  m_ObjectHideFlags: 0
  m_CorrespondingSourceObject: {fileID: 0}
  m_PrefabInternal: {fileID: 0}
  m_GameObject: {fileID: 0}
  m_Enabled: 1
  m_EditorHideFlags: 0
  m_Script: {fileID: 11500000, guid: a6b194f808b1af6499c93410e504af42, type: 3}
  m_Name: kaixiang1_Atlas
  m_EditorClassIdentifier: 
  atlasFile: {fileID: 4900000, guid: a9365d506fa3844a0b6de798c842e69c, type: 3}
  materials:
  - {fileID: 2100000, guid: 8531af2071b6842e6ab3a76cc133f150, type: 2}
