
ditu.png
size: 1889,503
format: RGBA8888
filter: Linear,Linear
repeat: none
ditu1
  rotate: true
  xy: 1275, 54
  size: 449, 306
  orig: 449, 306
  offset: 0, 0
  index: -1
ditu1a
  rotate: true
  xy: 1583, 54
  size: 449, 306
  orig: 449, 306
  offset: 0, 0
  index: -1
ditu2
  rotate: true
  xy: 585, 0
  size: 503, 343
  orig: 503, 343
  offset: 0, 0
  index: -1
ditu2a
  rotate: true
  xy: 930, 0
  size: 503, 343
  orig: 503, 343
  offset: 0, 0
  index: -1
ditu2b
  rotate: false
  xy: 0, 39
  size: 583, 464
  orig: 583, 464
  offset: 0, 0
  index: -1
