%YAML 1.1
%TAG !u! tag:unity3d.com,2011:
--- !u!114 &11400000
MonoBehaviour:
  m_ObjectHideFlags: 0
  m_CorrespondingSourceObject: {fileID: 0}
  m_PrefabInternal: {fileID: 0}
  m_GameObject: {fileID: 0}
  m_Enabled: 1
  m_EditorHideFlags: 0
  m_Script: {fileID: 11500000, guid: a6b194f808b1af6499c93410e504af42, type: 3}
  m_Name: xhc2a_Atlas
  m_EditorClassIdentifier: 
  atlasFile: {fileID: 4900000, guid: 5ce4db5ddd8db4602a94ed36bb12b502, type: 3}
  materials:
  - {fileID: 2100000, guid: 42e2e3f398a9342dbbbdd32b7b6bf4d0, type: 2}
