%YAML 1.1
%TAG !u! tag:unity3d.com,2011:
--- !u!114 &11400000
MonoBehaviour:
  m_ObjectHideFlags: 0
  m_CorrespondingSourceObject: {fileID: 0}
  m_PrefabInternal: {fileID: 0}
  m_GameObject: {fileID: 0}
  m_Enabled: 1
  m_EditorHideFlags: 0
  m_Script: {fileID: 11500000, guid: a6b194f808b1af6499c93410e504af42, type: 3}
  m_Name: kaixiang2_Atlas
  m_EditorClassIdentifier: 
  atlasFile: {fileID: 4900000, guid: 67388cd4ef9504779920221fcc4ee02d, type: 3}
  materials:
  - {fileID: 2100000, guid: b943888299ad34845969c8c8dfac20f6, type: 2}
