%YAML 1.1
%TAG !u! tag:unity3d.com,2011:
--- !u!114 &11400000
MonoBehaviour:
  m_ObjectHideFlags: 0
  m_CorrespondingSourceObject: {fileID: 0}
  m_PrefabInternal: {fileID: 0}
  m_GameObject: {fileID: 0}
  m_Enabled: 1
  m_EditorHideFlags: 0
  m_Script: {fileID: 11500000, guid: a6b194f808b1af6499c93410e504af42, type: 3}
  m_Name: an_Atlas
  m_EditorClassIdentifier: 
  atlasFile: {fileID: 4900000, guid: 2f20a3c2cc673404cb10cbdba7d24938, type: 3}
  materials:
  - {fileID: 2100000, guid: f7a50b56e9bf04a2abd979a32277c544, type: 2}
