
hc1.png
size: 842,842
format: RGBA8888
filter: Linear,Linear
repeat: none
3
  rotate: false
  xy: 604, 623
  size: 231, 217
  orig: 231, 217
  offset: 0, 0
  index: -1
balllight01
  rotate: false
  xy: 604, 473
  size: 148, 148
  orig: 148, 148
  offset: 0, 0
  index: -1
gx1
  rotate: false
  xy: 2, 252
  size: 600, 588
  orig: 600, 588
  offset: 0, 0
  index: -1
light02
  rotate: false
  xy: 253, 66
  size: 185, 184
  orig: 185, 184
  offset: 0, 0
  index: -1
particle02
  rotate: false
  xy: 440, 127
  size: 114, 123
  orig: 114, 123
  offset: 0, 0
  index: -1
ring02
  rotate: false
  xy: 2, 2
  size: 249, 248
  orig: 249, 248
  offset: 0, 0
  index: -1
