
xhc2a.png
size: 750,588
format: RGBA8888
filter: Linear,Linear
repeat: none
balllight01
  rotate: false
  xy: 602, 440
  size: 148, 148
  orig: 148, 148
  offset: 0, 0
  index: -1
gx1
  rotate: false
  xy: 0, 0
  size: 600, 588
  orig: 600, 588
  offset: 0, 0
  index: -1
particle02
  rotate: false
  xy: 602, 315
  size: 114, 123
  orig: 114, 123
  offset: 0, 0
  index: -1
